   0  $accept : %entry% $end

   1  java_file : package_def imports class_def EOF

   2  package_def :
   3              | PACKAGE qualified_identifier SEMICOLON

   4  imports :
   5          | imports import

   6  import : IMPORT qualified_identifier SEMICOLON

   7  class_def : modifiers CLASS IDENTIFIER LBRACE attributes_and_methods RBRACE

   8  attributes_and_methods :
   9                         | attributes_and_methods attribute_or_method

  10  attribute_or_method : attribute_def
  11                      | method_def

  12  attribute_def : variable_decl SEMICOLON

  13  expr : BOOL
  14       | INT
  15       | qualified_identifier
  16       | qualified_identifier array_indicies

  17  array_indicies : LBRACK expr RBRACK
  18                 | array_indicies LBRACK expr RBRACK

  19  method_def : modifiers java_type qualified_identifier LPAR args RPAR LBRACE statements RBRACE
  20             | modifiers qualified_identifier LPAR args RPAR LBRACE statements RBRACE

  21  statements :
  22             | statements statement

  23  statement : variable_decl SEMICOLON
  24            | function_call SEMICOLON

  25  variable_decl : modifiers java_type IDENTIFIER
  26                | modifiers java_type IDENTIFIER ASSIGN expr

  27  function_call : qualified_identifier LPAR params RPAR

  28  modifiers :
  29            | modifiers MODIFIER

  30  args :
  31       | arg_list

  32  arg_list : arg
  33           | arg_list COMMA arg

  34  arg : modifiers java_type IDENTIFIER

  35  params :
  36         | param_list

  37  param_list : expr
  38             | param_list COMMA expr

  39  java_type : java_type_string

  40  java_type_string : TYPE
  41                   | qualified_identifier
  42                   | java_type_string LBRACK RBRACK

  43  qualified_identifier : IDENTIFIER
  44                       | qualified_identifier DOT IDENTIFIER

  45  %entry% : '\001' java_file

state 0
	$accept : . %entry% $end  (0)

	'\001'  shift 1
	.  error

	%entry%  goto 2


state 1
	%entry% : '\001' . java_file  (45)
	package_def : .  (2)

	PACKAGE  shift 3
	IMPORT  reduce 2
	MODIFIER  reduce 2
	CLASS  reduce 2

	java_file  goto 4
	package_def  goto 5


state 2
	$accept : %entry% . $end  (0)

	$end  accept


state 3
	package_def : PACKAGE . qualified_identifier SEMICOLON  (3)

	IDENTIFIER  shift 6
	.  error

	qualified_identifier  goto 7


state 4
	%entry% : '\001' java_file .  (45)

	.  reduce 45


state 5
	java_file : package_def . imports class_def EOF  (1)
	imports : .  (4)

	.  reduce 4

	imports  goto 8


state 6
	qualified_identifier : IDENTIFIER .  (43)

	.  reduce 43


state 7
	package_def : PACKAGE qualified_identifier . SEMICOLON  (3)
	qualified_identifier : qualified_identifier . DOT IDENTIFIER  (44)

	SEMICOLON  shift 9
	DOT  shift 10
	.  error


state 8
	java_file : package_def imports . class_def EOF  (1)
	imports : imports . import  (5)
	modifiers : .  (28)

	IMPORT  shift 11
	MODIFIER  reduce 28
	CLASS  reduce 28

	class_def  goto 12
	import  goto 13
	modifiers  goto 14


state 9
	package_def : PACKAGE qualified_identifier SEMICOLON .  (3)

	.  reduce 3


state 10
	qualified_identifier : qualified_identifier DOT . IDENTIFIER  (44)

	IDENTIFIER  shift 15
	.  error


state 11
	import : IMPORT . qualified_identifier SEMICOLON  (6)

	IDENTIFIER  shift 6
	.  error

	qualified_identifier  goto 16


state 12
	java_file : package_def imports class_def . EOF  (1)

	EOF  shift 17
	.  error


state 13
	imports : imports import .  (5)

	.  reduce 5


state 14
	class_def : modifiers . CLASS IDENTIFIER LBRACE attributes_and_methods RBRACE  (7)
	modifiers : modifiers . MODIFIER  (29)

	MODIFIER  shift 18
	CLASS  shift 19
	.  error


state 15
	qualified_identifier : qualified_identifier DOT IDENTIFIER .  (44)

	.  reduce 44


state 16
	import : IMPORT qualified_identifier . SEMICOLON  (6)
	qualified_identifier : qualified_identifier . DOT IDENTIFIER  (44)

	SEMICOLON  shift 20
	DOT  shift 10
	.  error


state 17
	java_file : package_def imports class_def EOF .  (1)

	.  reduce 1


state 18
	modifiers : modifiers MODIFIER .  (29)

	.  reduce 29


state 19
	class_def : modifiers CLASS . IDENTIFIER LBRACE attributes_and_methods RBRACE  (7)

	IDENTIFIER  shift 21
	.  error


state 20
	import : IMPORT qualified_identifier SEMICOLON .  (6)

	.  reduce 6


state 21
	class_def : modifiers CLASS IDENTIFIER . LBRACE attributes_and_methods RBRACE  (7)

	LBRACE  shift 22
	.  error


state 22
	class_def : modifiers CLASS IDENTIFIER LBRACE . attributes_and_methods RBRACE  (7)
	attributes_and_methods : .  (8)

	.  reduce 8

	attributes_and_methods  goto 23


state 23
	class_def : modifiers CLASS IDENTIFIER LBRACE attributes_and_methods . RBRACE  (7)
	attributes_and_methods : attributes_and_methods . attribute_or_method  (9)
	modifiers : .  (28)

	RBRACE  shift 24
	MODIFIER  reduce 28
	TYPE  reduce 28
	IDENTIFIER  reduce 28

	modifiers  goto 25
	attribute_or_method  goto 26
	attribute_def  goto 27
	method_def  goto 28
	variable_decl  goto 29


state 24
	class_def : modifiers CLASS IDENTIFIER LBRACE attributes_and_methods RBRACE .  (7)

	.  reduce 7


state 25
	method_def : modifiers . java_type qualified_identifier LPAR args RPAR LBRACE statements RBRACE  (19)
	method_def : modifiers . qualified_identifier LPAR args RPAR LBRACE statements RBRACE  (20)
	variable_decl : modifiers . java_type IDENTIFIER  (25)
	variable_decl : modifiers . java_type IDENTIFIER ASSIGN expr  (26)
	modifiers : modifiers . MODIFIER  (29)

	MODIFIER  shift 18
	TYPE  shift 30
	IDENTIFIER  shift 6
	.  error

	qualified_identifier  goto 31
	java_type  goto 32
	java_type_string  goto 33


state 26
	attributes_and_methods : attributes_and_methods attribute_or_method .  (9)

	.  reduce 9


state 27
	attribute_or_method : attribute_def .  (10)

	.  reduce 10


state 28
	attribute_or_method : method_def .  (11)

	.  reduce 11


state 29
	attribute_def : variable_decl . SEMICOLON  (12)

	SEMICOLON  shift 34
	.  error


state 30
	java_type_string : TYPE .  (40)

	.  reduce 40


state 31
	method_def : modifiers qualified_identifier . LPAR args RPAR LBRACE statements RBRACE  (20)
	java_type_string : qualified_identifier .  (41)
	qualified_identifier : qualified_identifier . DOT IDENTIFIER  (44)

	LPAR  shift 35
	DOT  shift 10
	LBRACK  reduce 41
	IDENTIFIER  reduce 41


state 32
	method_def : modifiers java_type . qualified_identifier LPAR args RPAR LBRACE statements RBRACE  (19)
	variable_decl : modifiers java_type . IDENTIFIER  (25)
	variable_decl : modifiers java_type . IDENTIFIER ASSIGN expr  (26)

	IDENTIFIER  shift 36
	.  error

	qualified_identifier  goto 37


state 33
	java_type : java_type_string .  (39)
	java_type_string : java_type_string . LBRACK RBRACK  (42)

	LBRACK  shift 38
	IDENTIFIER  reduce 39


state 34
	attribute_def : variable_decl SEMICOLON .  (12)

	.  reduce 12


state 35
	method_def : modifiers qualified_identifier LPAR . args RPAR LBRACE statements RBRACE  (20)
	modifiers : .  (28)
	args : .  (30)

	RPAR  reduce 30
	MODIFIER  reduce 28
	TYPE  reduce 28
	IDENTIFIER  reduce 28

	modifiers  goto 39
	args  goto 40
	arg_list  goto 41
	arg  goto 42


state 36
	variable_decl : modifiers java_type IDENTIFIER .  (25)
	variable_decl : modifiers java_type IDENTIFIER . ASSIGN expr  (26)
	qualified_identifier : IDENTIFIER .  (43)

	ASSIGN  shift 43
	LPAR  reduce 43
	SEMICOLON  reduce 25
	DOT  reduce 43


state 37
	method_def : modifiers java_type qualified_identifier . LPAR args RPAR LBRACE statements RBRACE  (19)
	qualified_identifier : qualified_identifier . DOT IDENTIFIER  (44)

	LPAR  shift 44
	DOT  shift 10
	.  error


state 38
	java_type_string : java_type_string LBRACK . RBRACK  (42)

	RBRACK  shift 45
	.  error


state 39
	modifiers : modifiers . MODIFIER  (29)
	arg : modifiers . java_type IDENTIFIER  (34)

	MODIFIER  shift 18
	TYPE  shift 30
	IDENTIFIER  shift 6
	.  error

	qualified_identifier  goto 46
	java_type  goto 47
	java_type_string  goto 33


state 40
	method_def : modifiers qualified_identifier LPAR args . RPAR LBRACE statements RBRACE  (20)

	RPAR  shift 48
	.  error


state 41
	args : arg_list .  (31)
	arg_list : arg_list . COMMA arg  (33)

	COMMA  shift 49
	RPAR  reduce 31


state 42
	arg_list : arg .  (32)

	.  reduce 32


state 43
	variable_decl : modifiers java_type IDENTIFIER ASSIGN . expr  (26)

	BOOL  shift 50
	IDENTIFIER  shift 6
	INT  shift 51
	.  error

	qualified_identifier  goto 52
	expr  goto 53


state 44
	method_def : modifiers java_type qualified_identifier LPAR . args RPAR LBRACE statements RBRACE  (19)
	modifiers : .  (28)
	args : .  (30)

	RPAR  reduce 30
	MODIFIER  reduce 28
	TYPE  reduce 28
	IDENTIFIER  reduce 28

	modifiers  goto 39
	args  goto 54
	arg_list  goto 41
	arg  goto 42


state 45
	java_type_string : java_type_string LBRACK RBRACK .  (42)

	.  reduce 42


state 46
	java_type_string : qualified_identifier .  (41)
	qualified_identifier : qualified_identifier . DOT IDENTIFIER  (44)

	DOT  shift 10
	LBRACK  reduce 41
	IDENTIFIER  reduce 41


state 47
	arg : modifiers java_type . IDENTIFIER  (34)

	IDENTIFIER  shift 55
	.  error


state 48
	method_def : modifiers qualified_identifier LPAR args RPAR . LBRACE statements RBRACE  (20)

	LBRACE  shift 56
	.  error


state 49
	arg_list : arg_list COMMA . arg  (33)
	modifiers : .  (28)

	.  reduce 28

	modifiers  goto 39
	arg  goto 57


state 50
	expr : BOOL .  (13)

	.  reduce 13


state 51
	expr : INT .  (14)

	.  reduce 14


state 52
	expr : qualified_identifier .  (15)
	expr : qualified_identifier . array_indicies  (16)
	qualified_identifier : qualified_identifier . DOT IDENTIFIER  (44)

	LBRACK  shift 58
	DOT  shift 10
	RBRACK  reduce 15
	RPAR  reduce 15
	COMMA  reduce 15
	SEMICOLON  reduce 15

	array_indicies  goto 59


state 53
	variable_decl : modifiers java_type IDENTIFIER ASSIGN expr .  (26)

	.  reduce 26


state 54
	method_def : modifiers java_type qualified_identifier LPAR args . RPAR LBRACE statements RBRACE  (19)

	RPAR  shift 60
	.  error


state 55
	arg : modifiers java_type IDENTIFIER .  (34)

	.  reduce 34


state 56
	method_def : modifiers qualified_identifier LPAR args RPAR LBRACE . statements RBRACE  (20)
	statements : .  (21)

	.  reduce 21

	statements  goto 61


state 57
	arg_list : arg_list COMMA arg .  (33)

	.  reduce 33


state 58
	array_indicies : LBRACK . expr RBRACK  (17)

	BOOL  shift 50
	IDENTIFIER  shift 6
	INT  shift 51
	.  error

	qualified_identifier  goto 52
	expr  goto 62


state 59
	expr : qualified_identifier array_indicies .  (16)
	array_indicies : array_indicies . LBRACK expr RBRACK  (18)

	LBRACK  shift 63
	RBRACK  reduce 16
	RPAR  reduce 16
	COMMA  reduce 16
	SEMICOLON  reduce 16


state 60
	method_def : modifiers java_type qualified_identifier LPAR args RPAR . LBRACE statements RBRACE  (19)

	LBRACE  shift 64
	.  error


61: shift/reduce conflict (shift 6, reduce 28) on IDENTIFIER
state 61
	method_def : modifiers qualified_identifier LPAR args RPAR LBRACE statements . RBRACE  (20)
	statements : statements . statement  (22)
	modifiers : .  (28)

	RBRACE  shift 65
	IDENTIFIER  shift 6
	MODIFIER  reduce 28
	TYPE  reduce 28

	qualified_identifier  goto 66
	modifiers  goto 67
	variable_decl  goto 68
	statement  goto 69
	function_call  goto 70


state 62
	array_indicies : LBRACK expr . RBRACK  (17)

	RBRACK  shift 71
	.  error


state 63
	array_indicies : array_indicies LBRACK . expr RBRACK  (18)

	BOOL  shift 50
	IDENTIFIER  shift 6
	INT  shift 51
	.  error

	qualified_identifier  goto 52
	expr  goto 72


state 64
	method_def : modifiers java_type qualified_identifier LPAR args RPAR LBRACE . statements RBRACE  (19)
	statements : .  (21)

	.  reduce 21

	statements  goto 73


state 65
	method_def : modifiers qualified_identifier LPAR args RPAR LBRACE statements RBRACE .  (20)

	.  reduce 20


state 66
	function_call : qualified_identifier . LPAR params RPAR  (27)
	qualified_identifier : qualified_identifier . DOT IDENTIFIER  (44)

	LPAR  shift 74
	DOT  shift 10
	.  error


state 67
	variable_decl : modifiers . java_type IDENTIFIER  (25)
	variable_decl : modifiers . java_type IDENTIFIER ASSIGN expr  (26)
	modifiers : modifiers . MODIFIER  (29)

	MODIFIER  shift 18
	TYPE  shift 30
	IDENTIFIER  shift 6
	.  error

	qualified_identifier  goto 46
	java_type  goto 75
	java_type_string  goto 33


state 68
	statement : variable_decl . SEMICOLON  (23)

	SEMICOLON  shift 76
	.  error


state 69
	statements : statements statement .  (22)

	.  reduce 22


state 70
	statement : function_call . SEMICOLON  (24)

	SEMICOLON  shift 77
	.  error


state 71
	array_indicies : LBRACK expr RBRACK .  (17)

	.  reduce 17


state 72
	array_indicies : array_indicies LBRACK expr . RBRACK  (18)

	RBRACK  shift 78
	.  error


73: shift/reduce conflict (shift 6, reduce 28) on IDENTIFIER
state 73
	method_def : modifiers java_type qualified_identifier LPAR args RPAR LBRACE statements . RBRACE  (19)
	statements : statements . statement  (22)
	modifiers : .  (28)

	RBRACE  shift 79
	IDENTIFIER  shift 6
	MODIFIER  reduce 28
	TYPE  reduce 28

	qualified_identifier  goto 66
	modifiers  goto 67
	variable_decl  goto 68
	statement  goto 69
	function_call  goto 70


state 74
	function_call : qualified_identifier LPAR . params RPAR  (27)
	params : .  (35)

	BOOL  shift 50
	IDENTIFIER  shift 6
	INT  shift 51
	RPAR  reduce 35

	qualified_identifier  goto 52
	expr  goto 80
	params  goto 81
	param_list  goto 82


state 75
	variable_decl : modifiers java_type . IDENTIFIER  (25)
	variable_decl : modifiers java_type . IDENTIFIER ASSIGN expr  (26)

	IDENTIFIER  shift 83
	.  error


state 76
	statement : variable_decl SEMICOLON .  (23)

	.  reduce 23


state 77
	statement : function_call SEMICOLON .  (24)

	.  reduce 24


state 78
	array_indicies : array_indicies LBRACK expr RBRACK .  (18)

	.  reduce 18


state 79
	method_def : modifiers java_type qualified_identifier LPAR args RPAR LBRACE statements RBRACE .  (19)

	.  reduce 19


state 80
	param_list : expr .  (37)

	.  reduce 37


state 81
	function_call : qualified_identifier LPAR params . RPAR  (27)

	RPAR  shift 84
	.  error


state 82
	params : param_list .  (36)
	param_list : param_list . COMMA expr  (38)

	COMMA  shift 85
	RPAR  reduce 36


state 83
	variable_decl : modifiers java_type IDENTIFIER .  (25)
	variable_decl : modifiers java_type IDENTIFIER . ASSIGN expr  (26)

	ASSIGN  shift 43
	SEMICOLON  reduce 25


state 84
	function_call : qualified_identifier LPAR params RPAR .  (27)

	.  reduce 27


state 85
	param_list : param_list COMMA . expr  (38)

	BOOL  shift 50
	IDENTIFIER  shift 6
	INT  shift 51
	.  error

	qualified_identifier  goto 52
	expr  goto 86


state 86
	param_list : param_list COMMA expr .  (38)

	.  reduce 38


State 61 contains 1 shift/reduce conflict.
State 73 contains 1 shift/reduce conflict.


23 terminals, 26 nonterminals
46 grammar rules, 87 states
